# Blender v2.77 (sub 0) OBJ File: 'tank.blend'
# www.blender.org
mtllib tank.mtl
g Cube.001
v -2.171733 1.095007 2.266618
v -2.171733 2.754595 2.266618
v -2.171733 1.095007 -2.266617
v -2.171733 2.754595 -2.266617
v 2.361502 1.095007 2.266618
v 2.361502 2.754595 2.266618
v 2.361502 1.095007 -2.266617
v 2.361502 2.754595 -2.266617
v -0.873570 3.622112 0.968456
v -0.873570 3.622112 -0.968454
v 1.063339 3.622112 0.968456
v 1.063339 3.622112 -0.968454
v 3.039249 1.429792 0.352139
v 3.039249 2.419810 0.352139
v 3.039249 1.429792 -0.352138
v 3.039249 2.419810 -0.352138
v 6.807523 1.429792 0.352139
v 6.807523 2.419810 0.352139
v 6.807523 1.429792 -0.352138
v 6.807523 2.419810 -0.352138
v 7.105732 1.248499 0.847350
v 7.105732 2.601104 0.847350
v 7.105732 1.248499 -0.847349
v 7.105732 2.601104 -0.847349
v 7.756369 1.248499 0.847350
v 7.756369 2.601104 0.847350
v 7.756369 1.248499 -0.847349
v 7.756369 2.601104 -0.847349
vn -1.0000 0.0000 0.0000
vn 0.0000 0.0000 -1.0000
vn 0.9427 0.0000 0.3337
vn 0.0000 0.0000 1.0000
vn 0.0000 -1.0000 0.0000
vn -0.5556 0.8314 0.0000
vn 0.0000 1.0000 0.0000
vn 0.0000 0.8314 0.5556
vn 0.0000 0.8314 -0.5556
vn 0.5556 0.8314 0.0000
vn 0.4429 -0.8966 0.0000
vn 0.4429 0.8966 0.0000
vn 0.9427 0.0000 -0.3337
vn -0.8567 0.0000 0.5159
vn -0.8567 0.0000 -0.5159
vn -0.5195 -0.8545 0.0000
vn -0.5195 0.8545 0.0000
vn 1.0000 0.0000 0.0000
usemtl None
s off
f 2//1 4//1 3//1 1//1
f 4//2 8//2 7//2 3//2
f 6//3 5//3 13//3 14//3
f 6//4 2//4 1//4 5//4
f 1//5 3//5 7//5 5//5
f 4//6 2//6 9//6 10//6
f 11//7 12//7 10//7 9//7
f 2//8 6//8 11//8 9//8
f 8//9 4//9 10//9 12//9
f 6//10 8//10 12//10 11//10
f 13//5 15//5 19//5 17//5
f 5//11 7//11 15//11 13//11
f 8//12 6//12 14//12 16//12
f 7//13 8//13 16//13 15//13
f 18//14 17//14 21//14 22//14
f 16//7 14//7 18//7 20//7
f 14//4 13//4 17//4 18//4
f 15//2 16//2 20//2 19//2
f 21//5 23//5 27//5 25//5
f 19//15 20//15 24//15 23//15
f 17//16 19//16 23//16 21//16
f 20//17 18//17 22//17 24//17
f 28//18 26//18 25//18 27//18
f 24//7 22//7 26//7 28//7
f 22//4 21//4 25//4 26//4
f 23//2 24//2 28//2 27//2
g Cube
v 1.000000 1.000000 -0.999999
v 0.999999 1.000000 1.000001
v -1.000000 1.000000 1.000000
v -1.000000 1.000000 -1.000000
v -5.000000 0.999999 0.999999
v -5.000000 0.999999 -1.000001
v -6.000000 -1.000001 0.999999
v -6.000000 -1.000001 -1.000002
v -6.000000 -0.000001 0.999999
v -6.000000 -0.000001 -1.000001
v 7.000000 1.000000 -0.999998
v 7.000000 1.000000 1.000002
v 8.000000 -1.000000 -0.999998
v 8.000000 -1.000000 1.000002
v 8.000000 0.000000 -0.999997
v 8.000000 0.000000 1.000003
v 1.000001 1.000001 -4.000000
v -0.999999 1.000001 -4.000000
v -4.999999 1.000000 -4.000001
v -5.999999 -1.000000 -4.000001
v -5.999999 -0.000000 -4.000001
v 7.000001 1.000001 -3.999998
v 8.000001 -0.999999 -3.999998
v 8.000001 0.000001 -3.999998
v 1.000001 -0.999999 -5.000000
v -0.999999 -0.999999 -5.000000
v 1.000001 0.000001 -5.000000
v -0.999999 0.000001 -5.000000
v -4.999999 -1.000000 -5.000001
v -4.999999 0.000000 -5.000001
v -5.999999 -1.000000 -5.000001
v 7.000001 -0.999999 -4.999998
v 7.000001 0.000001 -4.999998
v 8.000001 -0.999999 -4.999998
v 0.999998 1.000000 4.000000
v -1.000001 1.000000 4.000000
v -5.000001 0.999999 3.999999
v -6.000001 -1.000001 3.999999
v -6.000001 -0.000001 3.999999
v 6.999999 1.000000 4.000002
v 7.999999 -1.000000 4.000002
v 7.999999 -0.000000 4.000002
v 0.999999 -1.000000 5.000000
v -1.000001 -1.000000 5.000000
v 0.999998 -0.000000 5.000000
v -1.000002 -0.000000 5.000000
v -5.000001 -1.000001 4.999999
v -5.000002 -0.000001 4.999999
v -6.000002 -1.000001 4.999999
v 6.999999 -1.000000 5.000002
v 6.999998 -0.000000 5.000002
v 7.999998 -1.000000 5.000002
v 1.000000 -2.000000 -1.000000
v 1.000000 -2.000000 1.000000
v -1.000000 -2.000000 1.000000
v -1.000000 -2.000000 -1.000000
v -5.000000 -2.000000 0.999999
v -5.000000 -2.000000 -1.000001
v -6.000000 -2.000001 0.999999
v -6.000000 -2.000001 -1.000002
v 7.000000 -2.000000 -0.999998
v 7.000000 -2.000000 1.000002
v 8.000000 -2.000000 -0.999998
v 8.000000 -2.000000 1.000002
v 1.000001 -1.999999 -4.000000
v -0.999999 -1.999999 -4.000000
v -4.999999 -2.000000 -4.000001
v -5.999999 -2.000000 -4.000001
v 7.000001 -1.999999 -3.999998
v 8.000001 -1.999999 -3.999998
v 1.000001 -1.999999 -5.000000
v -0.999999 -1.999999 -5.000000
v -4.999999 -2.000000 -5.000001
v -5.999999 -2.000000 -5.000001
v 7.000001 -1.999999 -4.999998
v 8.000001 -1.999999 -4.999998
v 0.999999 -2.000000 4.000000
v -1.000001 -2.000000 4.000000
v -5.000001 -2.000001 3.999999
v -6.000001 -2.000001 3.999998
v 6.999999 -2.000000 4.000002
v 7.999999 -2.000000 4.000002
v 0.999999 -2.000000 5.000000
v -1.000001 -2.000000 5.000000
v -5.000001 -2.000001 4.999999
v -6.000002 -2.000001 4.999999
v 6.999999 -2.000000 5.000002
v 7.999998 -2.000000 5.000002
vn 0.0000 1.0000 0.0000
vn 1.0000 -0.0000 0.0000
vn -1.0000 0.0000 -0.0000
vn -0.7071 0.7071 -0.0000
vn 0.7071 0.7071 0.0000
vn -0.0000 0.0000 1.0000
vn 0.0000 0.0000 -1.0000
vn 0.0000 0.7071 -0.7071
vn 0.5774 0.5774 -0.5774
vn -0.5774 0.5774 -0.5774
vn -0.0000 0.7071 0.7071
vn 0.5774 0.5774 0.5774
vn -0.5774 0.5774 0.5774
vn 0.0000 -1.0000 0.0000
usemtl Material
s off
f 29//19 32//19 31//19 30//19
f 43//20 41//20 51//20 52//20
f 31//19 33//19 65//19 64//19
f 31//19 32//19 34//19 33//19
f 30//19 31//19 64//19 63//19
f 34//19 32//19 46//19 47//19
f 35//21 37//21 38//21 36//21
f 32//19 29//19 45//19 46//19
f 33//22 34//22 38//22 37//22
f 39//23 40//23 44//23 43//23
f 75//24 77//24 114//24 113//24
f 29//19 30//19 40//19 39//19
f 44//23 40//23 68//23 70//23
f 41//20 43//20 44//20 42//20
f 78//24 71//24 111//24 115//24
f 36//21 48//21 96//21 88//21
f 41//20 42//20 92//20 91//20
f 48//21 49//21 59//21
f 57//25 54//25 100//25 101//25
f 46//26 45//26 55//26 56//26
f 52//20 51//20 62//20
f 77//21 66//21 108//21 114//21
f 38//22 34//22 47//22 49//22
f 39//23 43//23 52//23 50//23
f 71//24 72//24 112//24 111//24
f 35//21 36//21 88//21 87//21
f 48//21 59//21 102//21 96//21
f 29//19 39//19 50//19 45//19
f 36//21 38//21 49//21 48//21
f 53//25 55//25 61//25 60//25
f 55//25 53//25 54//25 56//25
f 56//25 54//25 57//25 58//25
f 58//25 57//25 59//25
f 60//25 61//25 62//25
f 50//27 52//27 62//27 61//27
f 45//26 50//26 61//26 55//26
f 60//25 62//25 104//25 103//25
f 72//24 75//24 113//24 112//24
f 47//26 46//26 56//26 58//26
f 66//21 35//21 87//21 108//21
f 49//28 47//28 58//28 59//28
f 59//25 57//25 101//25 102//25
f 63//29 64//29 74//29 73//29
f 69//20 70//20 80//20
f 53//25 60//25 103//25 99//25
f 51//20 41//20 91//20 98//20
f 62//20 51//20 98//20 104//20
f 33//22 37//22 67//22 65//22
f 42//20 44//20 70//20 69//20
f 37//21 35//21 66//21 67//21
f 40//19 30//19 63//19 68//19
f 69//20 80//20 116//20 110//20
f 80//24 78//24 115//24 116//24
f 71//24 73//24 74//24 72//24
f 75//24 76//24 77//24
f 72//24 74//24 76//24 75//24
f 73//24 71//24 78//24 79//24
f 79//24 78//24 80//24
f 67//21 66//21 77//21
f 70//30 68//30 79//30 80//30
f 54//25 53//25 99//25 100//25
f 65//31 67//31 77//31 76//31
f 42//20 69//20 110//20 92//20
f 64//29 65//29 76//29 74//29
f 68//29 63//29 73//29 79//29
f 81//32 82//32 83//32 84//32
f 89//32 81//32 93//32 97//32
f 84//32 83//32 85//32 86//32
f 83//32 82//32 105//32 106//32
f 86//32 85//32 87//32 88//32
f 82//32 81//32 89//32 90//32
f 86//32 88//32 96//32 95//32
f 90//32 92//32 110//32 109//32
f 90//32 89//32 91//32 92//32
f 93//32 94//32 100//32 99//32
f 94//32 95//32 101//32 100//32
f 81//32 84//32 94//32 93//32
f 84//32 86//32 95//32 94//32
f 91//32 89//32 97//32 98//32
f 95//32 96//32 102//32 101//32
f 98//32 97//32 103//32 104//32
f 97//32 93//32 99//32 103//32
f 106//32 105//32 111//32 112//32
f 107//32 106//32 112//32 113//32
f 108//32 107//32 113//32 114//32
f 82//32 90//32 109//32 105//32
f 87//32 85//32 107//32 108//32
f 85//32 83//32 106//32 107//32
f 105//32 109//32 115//32 111//32
f 109//32 110//32 116//32 115//32
