%YAML 1.1
%TAG !u! tag:unity3d.com,2011:
--- !u!74 &7400000
AnimationClip:
  m_ObjectHideFlags: 0
  m_PrefabParentObject: {fileID: 0}
  m_PrefabInternal: {fileID: 0}
  m_Name: TankForward
  serializedVersion: 6
  m_Legacy: 0
  m_Compressed: 0
  m_UseHighQualityCurve: 1
  m_RotationCurves: []
  m_CompressedRotationCurves: []
  m_EulerCurves:
  - curve:
      serializedVersion: 2
      m_Curve:
      - time: 0
        value: {x: 0.00000042688683, y: 89.99998, z: 7.40289}
        inSlope: {x: -0.00000018293409, y: 0, z: -2.3597574}
        outSlope: {x: -0.00000018293409, y: 0, z: -2.3597574}
        tangentMode: 0
      - time: 1.7501667
        value: {x: 0.00000010672171, y: 89.99998, z: 3.2729216}
        inSlope: {x: 0.00000007416416, y: 0, z: 0.9566803}
        outSlope: {x: 0.00000007416416, y: 0, z: 0.9566803}
        tangentMode: 0
      - time: 2.7166667
        value: {x: 0.00000042688683, y: 89.99998, z: 7.40289}
        inSlope: {x: 0.0000003312624, y: 0, z: 4.273118}
        outSlope: {x: 0.0000003312624, y: 0, z: 4.273118}
        tangentMode: 0
      m_PreInfinity: 2
      m_PostInfinity: 2
      m_RotationOrder: 4
    path: tankModel
  m_PositionCurves:
  - curve:
      serializedVersion: 2
      m_Curve:
      - time: 0
        value: {x: 0.4, y: -0.92, z: 0.03}
        inSlope: {x: 0, y: -0.19245282, z: -0.02264151}
        outSlope: {x: 0, y: -0.19245282, z: -0.02264151}
        tangentMode: 0
      - time: 1.7666667
        value: {x: 0.4, y: -1.26, z: -0.01}
        inSlope: {x: 0, y: -0.09622641, z: -0.011320875}
        outSlope: {x: 0, y: -0.09622641, z: -0.011320875}
        tangentMode: 0
      - time: 2.7166667
        value: {x: 0.4, y: -1.26, z: -0.010000229}
        inSlope: {x: 0, y: 2.5500023, z: 0.3000019}
        outSlope: {x: 0, y: 2.5500023, z: 0.3000019}
        tangentMode: 0
      - time: 2.7833333
        value: {x: 0.4, y: -0.92, z: 0.03}
        inSlope: {x: 0, y: 5.1000047, z: 0.600004}
        outSlope: {x: 0, y: 5.1000047, z: 0.600004}
        tangentMode: 0
      m_PreInfinity: 2
      m_PostInfinity: 2
      m_RotationOrder: 4
    path: tankModel
  m_ScaleCurves: []
  m_FloatCurves: []
  m_PPtrCurves: []
  m_SampleRate: 60
  m_WrapMode: 0
  m_Bounds:
    m_Center: {x: 0, y: 0, z: 0}
    m_Extent: {x: 0, y: 0, z: 0}
  m_ClipBindingConstant:
    genericBindings:
    - path: 1053508787
      attribute: 1
      script: {fileID: 0}
      classID: 4
      customType: 0
      isPPtrCurve: 0
    - path: 1053508787
      attribute: 4
      script: {fileID: 0}
      classID: 4
      customType: 14
      isPPtrCurve: 0
    pptrCurveMapping: []
  m_AnimationClipSettings:
    serializedVersion: 2
    m_AdditiveReferencePoseClip: {fileID: 0}
    m_AdditiveReferencePoseTime: 0
    m_StartTime: 0
    m_StopTime: 2.7833333
    m_OrientationOffsetY: 0
    m_Level: 0
    m_CycleOffset: 0
    m_HasAdditiveReferencePose: 0
    m_LoopTime: 1
    m_LoopBlend: 0
    m_LoopBlendOrientation: 0
    m_LoopBlendPositionY: 0
    m_LoopBlendPositionXZ: 0
    m_KeepOriginalOrientation: 0
    m_KeepOriginalPositionY: 1
    m_KeepOriginalPositionXZ: 0
    m_HeightFromFeet: 0
    m_Mirror: 0
  m_EditorCurves:
  - curve:
      serializedVersion: 2
      m_Curve:
      - time: 0
        value: 0.00000042688683
        inSlope: -0.00000018293409
        outSlope: -0.00000018293409
        tangentMode: 10
      - time: 1.7501667
        value: 0.00000010672171
        inSlope: 0.00000007416416
        outSlope: 0.00000007416416
        tangentMode: 10
      - time: 2.7166667
        value: 0.00000042688683
        inSlope: 0.0000003312624
        outSlope: 0.0000003312624
        tangentMode: 10
      m_PreInfinity: 2
      m_PostInfinity: 2
      m_RotationOrder: 4
    attribute: localEulerAnglesRaw.x
    path: tankModel
    classID: 4
    script: {fileID: 0}
  - curve:
      serializedVersion: 2
      m_Curve:
      - time: 0
        value: 89.99998
        inSlope: 0
        outSlope: 0
        tangentMode: 10
      - time: 1.7501667
        value: 89.99998
        inSlope: 0
        outSlope: 0
        tangentMode: 10
      - time: 2.7166667
        value: 89.99998
        inSlope: 0
        outSlope: 0
        tangentMode: 10
      m_PreInfinity: 2
      m_PostInfinity: 2
      m_RotationOrder: 4
    attribute: localEulerAnglesRaw.y
    path: tankModel
    classID: 4
    script: {fileID: 0}
  - curve:
      serializedVersion: 2
      m_Curve:
      - time: 0
        value: 7.40289
        inSlope: -2.3597574
        outSlope: -2.3597574
        tangentMode: 10
      - time: 1.7501667
        value: 3.2729216
        inSlope: 0.9566803
        outSlope: 0.9566803
        tangentMode: 10
      - time: 2.7166667
        value: 7.40289
        inSlope: 4.273118
        outSlope: 4.273118
        tangentMode: 10
      m_PreInfinity: 2
      m_PostInfinity: 2
      m_RotationOrder: 4
    attribute: localEulerAnglesRaw.z
    path: tankModel
    classID: 4
    script: {fileID: 0}
  - curve:
      serializedVersion: 2
      m_Curve:
      - time: 0
        value: 0.4
        inSlope: 0
        outSlope: 0
        tangentMode: 10
      - time: 1.7666667
        value: 0.4
        inSlope: 0
        outSlope: 0
        tangentMode: 10
      - time: 2.7166667
        value: 0.4
        inSlope: 0
        outSlope: 0
        tangentMode: 10
      - time: 2.7833333
        value: 0.4
        inSlope: 0
        outSlope: 0
        tangentMode: 10
      m_PreInfinity: 2
      m_PostInfinity: 2
      m_RotationOrder: 4
    attribute: m_LocalPosition.x
    path: tankModel
    classID: 4
    script: {fileID: 0}
  - curve:
      serializedVersion: 2
      m_Curve:
      - time: 0
        value: -0.92
        inSlope: -0.19245282
        outSlope: -0.19245282
        tangentMode: 10
      - time: 1.7666667
        value: -1.26
        inSlope: -0.09622641
        outSlope: -0.09622641
        tangentMode: 10
      - time: 2.7166667
        value: -1.26
        inSlope: 2.5500023
        outSlope: 2.5500023
        tangentMode: 10
      - time: 2.7833333
        value: -0.92
        inSlope: 5.1000047
        outSlope: 5.1000047
        tangentMode: 10
      m_PreInfinity: 2
      m_PostInfinity: 2
      m_RotationOrder: 4
    attribute: m_LocalPosition.y
    path: tankModel
    classID: 4
    script: {fileID: 0}
  - curve:
      serializedVersion: 2
      m_Curve:
      - time: 0
        value: 0.03
        inSlope: -0.02264151
        outSlope: -0.02264151
        tangentMode: 10
      - time: 1.7666667
        value: -0.01
        inSlope: -0.011320875
        outSlope: -0.011320875
        tangentMode: 10
      - time: 2.7166667
        value: -0.010000229
        inSlope: 0.3000019
        outSlope: 0.3000019
        tangentMode: 10
      - time: 2.7833333
        value: 0.03
        inSlope: 0.600004
        outSlope: 0.600004
        tangentMode: 10
      m_PreInfinity: 2
      m_PostInfinity: 2
      m_RotationOrder: 4
    attribute: m_LocalPosition.z
    path: tankModel
    classID: 4
    script: {fileID: 0}
  m_EulerEditorCurves:
  - curve:
      serializedVersion: 2
      m_Curve: []
      m_PreInfinity: 2
      m_PostInfinity: 2
      m_RotationOrder: 4
    attribute: m_LocalEulerAngles.x
    path: tankModel
    classID: 4
    script: {fileID: 0}
  - curve:
      serializedVersion: 2
      m_Curve: []
      m_PreInfinity: 2
      m_PostInfinity: 2
      m_RotationOrder: 4
    attribute: m_LocalEulerAngles.y
    path: tankModel
    classID: 4
    script: {fileID: 0}
  - curve:
      serializedVersion: 2
      m_Curve: []
      m_PreInfinity: 2
      m_PostInfinity: 2
      m_RotationOrder: 4
    attribute: m_LocalEulerAngles.z
    path: tankModel
    classID: 4
    script: {fileID: 0}
  m_HasGenericRootTransform: 0
  m_HasMotionFloatCurves: 0
  m_GenerateMotionCurves: 0
  m_Events: []
